<svg width="41" height="33" viewBox="0 0 41 33" fill="none" xmlns="http://www.w3.org/2000/svg">
<path fill-rule="evenodd" clip-rule="evenodd" d="M0.72575 6.17413C0.324927 6.17413 0 6.4902 0 6.88007C0 7.26995 0.324927 7.58602 0.72575 7.58602H2.66054C3.6775 7.58602 4.55901 8.27081 4.7839 9.23552L8.36619 24.6032C8.74098 26.2111 10.2102 27.3524 11.9052 27.3524H26.3706C27.0208 27.3524 27.5917 26.9317 27.7678 26.3228L29.7157 19.587H13.7894C13.3915 19.587 13.0689 19.271 13.0689 18.8811C13.0689 18.4912 13.3915 18.1751 13.7894 18.1751H30.1239L31.6464 12.9099C31.9069 12.0092 31.2111 11.1157 30.2492 11.1157H6.7105L6.19946 8.92332C5.82466 7.31545 4.35548 6.17413 2.66054 6.17413H0.72575ZM13.6893 31.588C13.6893 32.3678 13.0442 32.9999 12.2483 32.9999C11.4525 32.9999 10.8074 32.3678 10.8074 31.588C10.8074 30.8082 11.4525 30.1761 12.2483 30.1761C13.0442 30.1761 13.6893 30.8082 13.6893 31.588ZM23.7762 32.9999C24.572 32.9999 25.2172 32.3678 25.2172 31.588C25.2172 30.8082 24.572 30.1761 23.7762 30.1761C22.9803 30.1761 22.3352 30.8082 22.3352 31.588C22.3352 32.3678 22.9803 32.9999 23.7762 32.9999Z" fill="white"/>
<path d="M40.4589 9.04837C40.4589 13.7639 36.5884 17.5967 31.8013 17.5967C27.0142 17.5967 23.1438 13.7639 23.1438 9.04837C23.1438 4.33287 27.0142 0.5 31.8013 0.5C36.5884 0.5 40.4589 4.33287 40.4589 9.04837Z" fill="white" stroke="#83B282"/>
<path d="M32.8431 4.85618V12.1289H31.3055V6.3157H31.2629L29.5974 7.35973V5.99609L31.3978 4.85618H32.8431Z" fill="#010101"/>
</svg>
